{
  "project_info": {
    "project_number": "590731346741",
    "firebase_url": "https://mobileappwithnotif.firebaseio.com",
    "project_id": "mobileappwithnotif",
    "storage_bucket": "mobileappwithnotif.appspot.com"
  },
  "client": [
    {
      "client_info": {
        "mobilesdk_app_id": "1:590731346741:android:d77fec97f60b4158be427c",
        "android_client_info": {
          "package_name": "com.reactnativetestapp"
        }
      },
      "oauth_client": [
        {
          "client_id": "590731346741-tjl588hs956cnn6l2oh2e36d90ulnp5n.apps.googleusercontent.com",
          "client_type": 3
        }
      ],
      "api_key": [
        {
          "current_key": "AIzaSyAIdedmUwVn-QsbCzhR2x0dg8C3QgHjS1c"
        }
      ],
      "services": {
        "appinvite_service": {
          "other_platform_oauth_client": [
            {
              "client_id": "590731346741-tjl588hs956cnn6l2oh2e36d90ulnp5n.apps.googleusercontent.com",
              "client_type": 3
            }
          ]
        }
      }
    }
  ],
  "configuration_version": "1"
}